Final_analysis
…
Table 2

data %>%
  group_by(DASS_Depr) %>%
  summarise(
    N = n(),
    Mean = mean(trustRTVec, na.rm = TRUE),
    SD = sd(trustRTVec, na.rm = TRUE),
    Min = min(trustRTVec, na.rm = TRUE),
    Max = max(trustRTVec, na.rm = TRUE)
  ) %>%
  print()

# A tibble: 22 × 6
   DASS_Depr     N  Mean    SD   Min   Max
       <int> <int> <dbl> <dbl> <int> <int>
 1         0  2277  678.  366.     2  2026
 2         1  1632  670.  308.    11  1971
 3         2   740  693.  359.    13  1974
 4         3   666  793.  373.     9  1995
 5         4   381  669.  308.    53  1958
 6         5   527  702.  333.    18  1989
 7         6   686  635.  306.    26  1935
 8         7   418  690.  347.     8  1977
 9         8   491  643.  357.     2  1972
10         9   266  704.  390.   107  1993
# ℹ 12 more rows
…
